StarForth DOE Full Report
…
    10. Missingness Profile

# A tibble: 59 × 5
   metric            n  n_na n_nan na_prop
   <chr>         <int> <int> <int>   <dbl>
 1 L1_heat        3840     0     0       0
 2 L2_window      3840     0     0       0
 3 L3_decay       3840     0     0       0
 4 L4_pipeline    3840     0     0       0
 5 L5_win_inf     3840     0     0       0
 6 L6_decay_inf   3840     0     0       0
 7 L7_heartrate   3840     0     0       0
 8 total_lookups  3840     0     0       0
 9 cache_hits     3840     0     0       0
10 cache_hit_pct  3840     0     0       0
# ℹ 49 more rows
…
