StarForth DOE Full Report
…
    10. Missingness Profile

# A tibble: 59 × 5
   metric            n  n_na n_nan na_prop
   <chr>         <int> <int> <int>   <dbl>
 1 L1_heat       38400     0     0       0
 2 L2_window     38400     0     0       0
 3 L3_decay      38400     0     0       0
 4 L4_pipeline   38400     0     0       0
 5 L5_win_inf    38400     0     0       0
 6 L6_decay_inf  38400     0     0       0
 7 L7_heartrate  38400     0     0       0
 8 total_lookups 38400     0     0       0
 9 cache_hits    38400     0     0       0
10 cache_hit_pct 38400     0     0       0
# ℹ 49 more rows
…
